<?xml version="1.0" encoding="UTF-8"?>
<!DOCTYPE suite SYSTEM "http://testng.org/testng-1.0.dtd">
<suite guice-stage="DEVELOPMENT" verbose="0" name="Failed suite [Suite]">
  <test thread-count="5" verbose="0" name="Test(failed)">
    <classes>
      <class name="com.key2act.LoginTestcases.TC002_LoginTest">
        <methods>
          <include name="verifyLogindetails"/>
          <include name="browserSetup"/>
        </methods>
      </class> <!-- com.key2act.LoginTestcases.TC002_LoginTest -->
      <class name="com.key2act.LoginTestcases.TC001_LoginTest">
        <methods>
          <include name="verifyLogin"/>
          <include name="browserSetup"/>
        </methods>
      </class> <!-- com.key2act.LoginTestcases.TC001_LoginTest -->
    </classes>
  </test> <!-- Test(failed) -->
</suite> <!-- Failed suite [Suite] -->
